{
  "@id": "0selbgeo1duz",
  "@type": "Cycle",
  "startDate": "2007-10-05",
  "endDate": "2008-08-29",
  "startDateDefinition": "sowing date",
  "functionalUnit": "1 ha",
  "description": "ADAS Grange field, DailyDayCent (DDC) model experiment, control site",
  "defaultMethodClassification": "physical measurement",
  "defaultMethodClassificationDescription": "designed experiment",
  "completeness": {
    "fertiliser": true,
    "soilAmendments": false,
    "pesticidesAntibiotics": false,
    "water": false,
    "electricityFuel": false,
    "products": false,
    "cropResidue": false,
    "excreta": true,
    "other": false,
    "material": false,
    "animalFeed": true,
    "waste": true,
    "liveAnimals": true,
    "transport": false,
    "operations": false,
    "@type": "Completeness"
  },
  "site": {
    "@id": "ef9adks2ayro",
    "@type": "Site",
    "country": {
      "@type": "Term",
      "termType": "region",
      "name": "United Kingdom",
      "@id": "GADM-GBR"
    }
  },
  "products": [
    {
      "term": {
        "@type": "Term",
        "termType": "crop",
        "name": "Wheat, grain",
        "units": "kg",
        "@id": "wheatGrain"
      },
      "value": [
        4460
      ],
      "methodClassification": "modelled",
      "methodClassificationDescription": "yield measurement unavailible, modelled value used",
      "primary": true,
      "@type": "Product"
    }
  ],
  "inputs": [
    {
      "term": {
        "@type": "Term",
        "name": "Ammonium Nitrate (kg N)",
        "termType": "inorganicFertiliser",
        "@id": "ammoniumNitrateKgN",
        "units": "kg N"
      },
      "value": [
        0
      ],
      "@type": "Input"
    }
  ],
  "cycleDuration": 329,
  "name": "Wheat, grain - Nottinghamshire, United Kingdom - 2008-08-29 - ADAS Grange field, DailyDayCen...",
  "schemaVersion": "19.0.0",
  "dataPrivate": true
}