{
  "@id": "7wnwrytjydj8",
  "@type": "Cycle",
  "endDate": "2007",
  "numberOfCycles": 3,
  "functionalUnit": "1 ha",
  "defaultMethodClassification": "physical measurement",
  "defaultMethodClassificationDescription": "designed experiment",
  "completeness": {
    "fertiliser": true,
    "soilAmendments": false,
    "pesticidesAntibiotics": false,
    "water": false,
    "electricityFuel": false,
    "products": true,
    "cropResidue": false,
    "excreta": true,
    "other": false,
    "material": false,
    "animalFeed": true,
    "waste": true,
    "liveAnimals": true,
    "transport": false,
    "operations": false,
    "@type": "Completeness"
  },
  "site": {
    "@id": "g5fvvs373u2f",
    "@type": "Site",
    "country": {
      "@type": "Term",
      "termType": "region",
      "name": "United Kingdom",
      "@id": "GADM-GBR"
    }
  },
  "products": [
    {
      "term": {
        "@type": "Term",
        "termType": "crop",
        "name": "Wheat, grain",
        "units": "kg",
        "@id": "wheatGrain"
      },
      "variety": "Hereward",
      "value": [
        3930,
        4410,
        3290
      ],
      "dates": [
        "2005",
        "2006",
        "2007"
      ],
      "statsDefinition": "cycles",
      "properties": [
        {
          "term": {
            "@type": "Term",
            "name": "Dry matter",
            "termType": "property",
            "@id": "dryMatter",
            "units": "%"
          },
          "value": 85,
          "@type": "Property"
        },
        {
          "term": {
            "@type": "Term",
            "name": "Nitrogen content",
            "termType": "property",
            "@id": "nitrogenContent",
            "units": "%"
          },
          "value": 1.37,
          "@type": "Property"
        },
        {
          "term": {
            "@type": "Term",
            "name": "Crude protein content",
            "termType": "property",
            "@id": "crudeProteinContent",
            "units": "%"
          },
          "value": 7.81,
          "description": "% protein contents calculated as (N% x 5.7)",
          "@type": "Property"
        }
      ],
      "primary": true,
      "@type": "Product"
    }
  ],
  "inputs": [
    {
      "term": {
        "@type": "Term",
        "name": "Ammonium Nitrate (kg N)",
        "termType": "inorganicFertiliser",
        "@id": "ammoniumNitrateKgN",
        "units": "kg N"
      },
      "value": [
        48
      ],
      "description": "single dressing in mid-April",
      "dates": [
        "2007-04-15"
      ],
      "@type": "Input"
    },
    {
      "term": {
        "@type": "Term",
        "name": "Inorganic Sulphur fertiliser, unspecified (kg S)",
        "termType": "inorganicFertiliser",
        "@id": "inorganicSulphurFertiliserUnspecifiedKgS",
        "units": "kg S"
      },
      "value": [
        53
      ],
      "@type": "Input"
    }
  ],
  "cycleDuration": 365,
  "name": "Wheat, grain - Hertfordshire, United Kingdom - 2007",
  "schemaVersion": "19.0.0",
  "dataPrivate": true
}