{
  "createdAt": "2023-06-21",
  "@id": "_3bom3yx_za_",
  "@type": "Cycle",
  "endDate": "2010",
  "numberOfCycles": 1,
  "functionalUnit": "1 ha",
  "description": "Farmer baker using animal labour (high environmental impacts in 2010 caused by unsuccessful management experiments implemented by the farmer during this year resulting in low yield)",
  "defaultMethodClassification": "verified survey data",
  "defaultMethodClassificationDescription": "Data collected through series of direct, semi-structured interviews with producers and further correspondence via post and e-mail",
  "completeness": {
    "fertiliser": true,
    "soilAmendments": true,
    "pesticidesAntibiotics": true,
    "water": false,
    "electricityFuel": false,
    "products": true,
    "cropResidue": false,
    "excreta": true,
    "other": true,
    "material": false,
    "animalFeed": true,
    "waste": true,
    "liveAnimals": false,
    "transport": false,
    "operations": false,
    "@type": "Completeness"
  },
  "site": {
    "@id": "5eelyyb-vyfq",
    "@type": "Site",
    "country": {
      "@type": "Term",
      "termType": "region",
      "name": "France",
      "@id": "GADM-FRA"
    }
  },
  "products": [
    {
      "term": {
        "@type": "Term",
        "termType": "crop",
        "name": "Wheat, grain",
        "units": "kg",
        "@id": "wheatGrain"
      },
      "value": [
        436.8932038834951
      ],
      "variety": "landraces",
      "description": "Supplementary data, Production / Arable land",
      "primary": true,
      "@type": "Product"
    }
  ],
  "inputs": [
    {
      "term": {
        "@type": "Term",
        "name": "Compost (kg mass)",
        "termType": "organicFertiliser",
        "@id": "compostKgMass",
        "units": "kg"
      },
      "value": [
        12000
      ],
      "isAnimalFeed": false,
      "description": "Compost horse manure(72 kg N/ha, 30 kg P2O5/ha, 50 kg K2O/ha)",
      "@type": "Input"
    },
    {
      "term": {
        "@type": "Term",
        "name": "Pesticide unspecified (AI)",
        "termType": "pesticideAI",
        "@id": "pesticideUnspecifiedAi",
        "units": "kg active ingredient"
      },
      "value": [
        0
      ],
      "description": "no pesticide",
      "@type": "Input"
    },
    {
      "term": {
        "@type": "Term",
        "name": "Seed",
        "termType": "other",
        "@id": "seed",
        "units": "kg"
      },
      "@type": "Input"
    }
  ],
  "cycleDuration": 365,
  "name": "Wheat, grain - France - 2010 - Farmer baker using animal labo...",
  "schemaVersion": "21.4.0",
  "dataPrivate": true
}