{
  "@id": "bfnqnz3h21xx",
  "@type": "Cycle",
  "endDate": "2000",
  "functionalUnit": "1 ha",
  "description": "N rate 0 kg/ha",
  "defaultMethodClassification": "physical measurement",
  "defaultMethodClassificationDescription": "Data taken from the Broadbalk field experiment",
  "completeness": {
    "fertiliser": true,
    "soilAmendments": true,
    "pesticidesAntibiotics": false,
    "water": true,
    "electricityFuel": false,
    "products": true,
    "cropResidue": false,
    "excreta": true,
    "other": false,
    "material": true,
    "animalFeed": true,
    "waste": true,
    "liveAnimals": true,
    "transport": true,
    "operations": false,
    "@type": "Completeness"
  },
  "site": {
    "@id": "lotbu7vgatka",
    "@type": "Site",
    "country": {
      "@type": "Term",
      "termType": "region",
      "name": "United Kingdom",
      "@id": "GADM-GBR"
    }
  },
  "products": [
    {
      "term": {
        "@type": "Term",
        "termType": "crop",
        "name": "Wheat, grain",
        "units": "kg",
        "@id": "wheatGrain"
      },
      "value": [
        2070
      ],
      "properties": [
        {
          "term": {
            "@type": "Term",
            "name": "Dry matter",
            "termType": "property",
            "@id": "dryMatter",
            "units": "%"
          },
          "value": 85,
          "@type": "Property"
        }
      ],
      "primary": true,
      "@type": "Product"
    },
    {
      "term": {
        "@type": "Term",
        "termType": "crop",
        "name": "Wheat, straw",
        "units": "kg",
        "@id": "wheatStraw"
      },
      "value": [
        940
      ],
      "description": "DM 85%",
      "@type": "Product"
    }
  ],
  "inputs": [
    {
      "term": {
        "@type": "Term",
        "name": "Ammonium Nitrate (kg N)",
        "termType": "inorganicFertiliser",
        "@id": "ammoniumNitrateKgN",
        "units": "kg N"
      },
      "value": [
        0
      ],
      "description": "March/April",
      "dates": [
        "--03"
      ],
      "@type": "Input"
    },
    {
      "term": {
        "@type": "Term",
        "name": "Phosphate Rock (kg P2O5)",
        "termType": "inorganicFertiliser",
        "@id": "phosphateRockKgP2O5",
        "units": "kg P2O5"
      },
      "value": [
        48.41
      ],
      "description": "October, Fertilizer spreader, Tractor (60 kW)",
      "dates": [
        "--10"
      ],
      "operation": {
        "@type": "Term",
        "name": "Fertilising, with spreader",
        "termType": "operation",
        "@id": "fertilisingWithSpreader",
        "units": "hour"
      },
      "@type": "Input"
    },
    {
      "term": {
        "@type": "Term",
        "name": "Potassium Chloride (kg K2O)",
        "termType": "inorganicFertiliser",
        "@id": "potassiumChlorideKgK2O",
        "units": "kg K2O"
      },
      "value": [
        203.7
      ],
      "description": "MOP, Potash salt. October, Fertilizer spreader, Tractor (60 kW)",
      "dates": [
        "--10"
      ],
      "operation": {
        "@type": "Term",
        "name": "Fertilising, with spreader",
        "termType": "operation",
        "@id": "fertilisingWithSpreader",
        "units": "hour"
      },
      "@type": "Input"
    },
    {
      "term": {
        "@type": "Term",
        "name": "Diesel",
        "termType": "fuel",
        "@id": "diesel",
        "units": "kg"
      },
      "value": [
        70.02
      ],
      "@type": "Input"
    }
  ],
  "cycleDuration": 365,
  "name": "Wheat, grain - Hertfordshire, United Kingdom - 2000 - N rate 0 kg/ha",
  "schemaVersion": "19.0.0",
  "dataPrivate": true
}