{
  "@id": "cjoowy-go7c8",
  "@type": "Cycle",
  "endDate": "2005",
  "functionalUnit": "1 ha",
  "description": "Liquad UAN 100 + Agrotain 500mg nBTPT/kg urea, coated",
  "defaultMethodClassification": "physical measurement",
  "defaultMethodClassificationDescription": "designed experiment",
  "completeness": {
    "fertiliser": false,
    "soilAmendments": false,
    "pesticidesAntibiotics": false,
    "water": false,
    "electricityFuel": false,
    "products": true,
    "cropResidue": false,
    "excreta": true,
    "other": false,
    "material": false,
    "animalFeed": true,
    "waste": true,
    "liveAnimals": true,
    "transport": false,
    "operations": false,
    "@type": "Completeness"
  },
  "site": {
    "@id": "qovllwgvuv6z",
    "@type": "Site",
    "country": {
      "@type": "Term",
      "termType": "region",
      "name": "United Kingdom",
      "@id": "GADM-GBR"
    }
  },
  "products": [
    {
      "term": {
        "@type": "Term",
        "termType": "crop",
        "name": "Wheat, grain",
        "units": "kg",
        "@id": "wheatGrain"
      },
      "value": [
        8760
      ],
      "sd": [
        398.37168574084177
      ],
      "statsDefinition": "replications",
      "observations": [
        3
      ],
      "properties": [
        {
          "term": {
            "@type": "Term",
            "name": "Dry matter",
            "termType": "property",
            "@id": "dryMatter",
            "units": "%"
          },
          "value": 85,
          "@type": "Property"
        }
      ],
      "primary": true,
      "@type": "Product"
    },
    {
      "term": {
        "@type": "Term",
        "name": "Nitrogen uptake (whole crop)",
        "termType": "crop",
        "@id": "nitrogenUptakeWholeCrop",
        "units": "kg N"
      },
      "value": [
        168.2
      ],
      "sd": [
        5.64648563267454
      ],
      "statsDefinition": "replications",
      "@type": "Product"
    }
  ],
  "inputs": [
    {
      "term": {
        "@type": "Term",
        "name": "Ammonium Nitrate (kg N)",
        "termType": "inorganicFertiliser",
        "@id": "ammoniumNitrateKgN",
        "units": "kg N"
      },
      "value": [
        40
      ],
      "description": "40 kgN/ha as AN applied in mid February/early March; applied by hand",
      "@type": "Input"
    },
    {
      "term": {
        "@type": "Term",
        "name": "Urea Ammonium Nitrate (kg N)",
        "termType": "inorganicFertiliser",
        "@id": "ureaAmmoniumNitrateKgN",
        "units": "kg N"
      },
      "value": [
        100
      ],
      "description": "stream jet nozzles",
      "dates": [
        "2005-04-12"
      ],
      "properties": [
        {
          "term": {
            "@type": "Term",
            "name": "Urease inhibitor used",
            "termType": "property",
            "@id": "ureaseInhibitorUsed",
            "units": "boolean"
          },
          "value": true,
          "description": "UAN + Agrotain (500 mg/kg active ingredient nBTPT / kg of urea)",
          "@type": "Property"
        }
      ],
      "@type": "Input"
    },
    {
      "term": {
        "@type": "Term",
        "name": "Urease inhibitor, unspecified",
        "termType": "pesticideAI",
        "@id": "ureaseInhibitorUnspecified",
        "units": "kg active ingredient"
      },
      "value": [
        0.05
      ],
      "@type": "Input"
    }
  ],
  "cycleDuration": 365,
  "name": "Wheat, grain - King's Lynn and West Norfolk, United Kingdom - 2005 - Liquad UAN 100 + Agrotain 500m...",
  "schemaVersion": "19.0.0",
  "dataPrivate": true
}