{
  "@id": "ekrhwdnrcvrr",
  "@type": "Cycle",
  "endDate": "1997",
  "numberOfCycles": 5,
  "functionalUnit": "1 ha",
  "description": "Rotation pattern: Wheat, set-aside, peas, wheat, potatoes",
  "defaultMethodClassification": "physical measurement",
  "defaultMethodClassificationDescription": "designed experiment for the LINK Integrated Farming Systems (LINK-IFS) Project (1992–1997)",
  "completeness": {
    "fertiliser": false,
    "soilAmendments": false,
    "pesticidesAntibiotics": true,
    "water": false,
    "electricityFuel": false,
    "products": true,
    "cropResidue": false,
    "excreta": true,
    "other": false,
    "material": false,
    "animalFeed": true,
    "waste": true,
    "liveAnimals": true,
    "transport": false,
    "operations": false,
    "@type": "Completeness"
  },
  "site": {
    "@id": "mnwup4lcvfbs",
    "@type": "Site",
    "country": {
      "@type": "Term",
      "termType": "region",
      "name": "United Kingdom",
      "@id": "GADM-GBR"
    }
  },
  "products": [
    {
      "term": {
        "@type": "Term",
        "termType": "crop",
        "name": "Wheat, grain",
        "units": "kg",
        "@id": "wheatGrain"
      },
      "value": [
        8140
      ],
      "primary": true,
      "@type": "Product"
    }
  ],
  "inputs": [
    {
      "term": {
        "@type": "Term",
        "name": "Inorganic Nitrogen fertiliser, unspecified (kg N)",
        "termType": "inorganicFertiliser",
        "@id": "inorganicNitrogenFertiliserUnspecifiedKgN",
        "units": "kg N"
      },
      "value": [
        115
      ],
      "@type": "Input"
    },
    {
      "term": {
        "@type": "Term",
        "name": "Pesticide unspecified (AI)",
        "termType": "pesticideAI",
        "@id": "pesticideUnspecifiedAi",
        "units": "kg active ingredient"
      },
      "value": [
        0.04255
      ],
      "@type": "Input"
    }
  ],
  "cycleDuration": 365,
  "name": "Wheat, grain - Cambridgeshire, United Kingdom - 1997 - Rotation pattern: Wheat, set-a...",
  "schemaVersion": "19.0.0",
  "dataPrivate": true
}