{
  "createdAt": "2023-06-22",
  "@id": "rxzllbtv-gul",
  "@type": "Cycle",
  "endDate": "2009",
  "numberOfCycles": 1,
  "functionalUnit": "1 ha",
  "description": "Low-input integrated crop and livestock production; grains milled on-farm; consumers bake bread at home",
  "defaultMethodClassification": "verified survey data",
  "defaultMethodClassificationDescription": "Data collected through series of direct, semi-structured interviews with producers and further correspondence via post and e-mail",
  "completeness": {
    "fertiliser": true,
    "soilAmendments": true,
    "pesticidesAntibiotics": true,
    "water": false,
    "electricityFuel": false,
    "products": true,
    "cropResidue": false,
    "excreta": true,
    "other": true,
    "material": false,
    "animalFeed": true,
    "waste": true,
    "liveAnimals": false,
    "transport": false,
    "operations": false,
    "@type": "Completeness"
  },
  "site": {
    "@id": "fd1bl0luwwsp",
    "@type": "Site",
    "country": {
      "@type": "Term",
      "termType": "region",
      "name": "France",
      "@id": "GADM-FRA"
    }
  },
  "products": [
    {
      "term": {
        "@type": "Term",
        "termType": "crop",
        "name": "Wheat, grain",
        "units": "kg",
        "@id": "wheatGrain"
      },
      "value": [
        2307.692307692308
      ],
      "variety": "landraces",
      "description": "Supplementary data, Production / Arable land",
      "primary": true,
      "@type": "Product"
    },
    {
      "term": {
        "@type": "Term",
        "termType": "crop",
        "name": "Wheat, straw",
        "units": "kg",
        "@id": "wheatStraw"
      },
      "value": [
        4950.354609929078
      ],
      "description": "Mixed wheat and rye straw assumed; firm straw used as livestock bedding",
      "@type": "Product"
    }
  ],
  "inputs": [
    {
      "term": {
        "@type": "Term",
        "name": "Compost (kg mass)",
        "termType": "organicFertiliser",
        "@id": "compostKgMass",
        "units": "kg"
      },
      "value": [
        10000
      ],
      "isAnimalFeed": false,
      "description": "Compost cow manure(74 kg N/ha, 39 kg P2O5/ha, 69 kg K2O/ha)",
      "@type": "Input"
    },
    {
      "term": {
        "@type": "Term",
        "name": "Pesticide unspecified (AI)",
        "termType": "pesticideAI",
        "@id": "pesticideUnspecifiedAi",
        "units": "kg active ingredient"
      },
      "value": [
        0
      ],
      "description": "no pesticide",
      "@type": "Input"
    },
    {
      "term": {
        "@type": "Term",
        "name": "Seed",
        "termType": "other",
        "@id": "seed",
        "units": "kg"
      },
      "@type": "Input"
    }
  ],
  "cycleDuration": 365,
  "name": "Wheat, grain - France - 2009 - Low-input integrated crop and ...",
  "schemaVersion": "21.4.0",
  "dataPrivate": true
}